hk\com\novare\repository\BillerRepository.class
hk\com\novare\service\SendEmailServiceImpl$1.class
hk\com\novare\repository\BillerIconUrlRepository.class
hk\com\novare\service\DecryptService.class
hk\com\novare\service\SendEmailService.class
hk\com\novare\repository\ServiceFeeRepository.class
hk\com\novare\data\BillerIconUrl.class
hk\com\novare\data\MerchantConfig.class
hk\com\novare\repository\SpecBillerListRepository.class
hk\com\novare\service\S3Service.class
hk\com\novare\service\ScriptGenService.class
hk\com\novare\config\AppConfig.class
hk\com\novare\DbiScriptGenApplication.class
hk\com\novare\data\Biller.class
hk\com\novare\repository\MerchantConfigRepository.class
hk\com\novare\service\SendEmailServiceImpl.class
hk\com\novare\service\S3ServiceImpl.class
hk\com\novare\service\ScriptGenServiceImpl.class
hk\com\novare\data\ServiceFee.class
hk\com\novare\data\SpecBillerList.class
